%!PS-Adobe-2.0 EPSF-2.0
%%BoundingBox:  0 0 567 544
%%Title: AtlasExample.eps: single inclusive jets
%%Creator: ROOT Version 5.34/10
%%CreationDate: Sat Jan 25 19:39:55 2014
%%EndComments
%%BeginProlog
80 dict begin
/s {stroke} def /l {lineto} def /m {moveto} def /t {translate} def
/r {rotate} def /rl {roll}  def /R {repeat} def
/d {rlineto} def /rm {rmoveto} def /gr {grestore} def /f {eofill} def
/c {setrgbcolor} def /black {0 setgray} def /sd {setdash} def
/cl {closepath} def /sf {scalefont setfont} def /lw {setlinewidth} def
/box {m dup 0 exch d exch 0 d 0 exch neg d cl} def
/NC{systemdict begin initclip end}def/C{NC box clip newpath}def
/bl {box s} def /bf {box f} def /Y { 0 exch d} def /X { 0 d} def 
/K {{pop pop 0 moveto} exch kshow} bind def
/ita {/ang 15 def gsave [1 0 ang dup sin exch cos div 1 0 0] concat} def 
/mp {newpath /y exch def /x exch def} def
/side {[w .77 mul w .23 mul] .385 w mul sd w 0 l currentpoint t -144 r} def
/mr {mp x y w2 0 360 arc} def /m24 {mr s} def /m20 {mr f} def
/mb {mp x y w2 add m w2 neg 0 d 0 w neg d w 0 d 0 w d cl} def
/mt {mp x y w2 add m w2 neg w neg d w 0 d cl} def
/m21 {mb f} def /m25 {mb s} def /m22 {mt f} def /m26{mt s} def
/m23 {mp x y w2 sub m w2 w d w neg 0 d cl f} def
/m27 {mp x y w2 add m w3 neg w2 neg d w3 w2 neg d w3 w2 d cl s} def
/m28 {mp x w2 sub y w2 sub w3 add m w3 0 d  0 w3 neg d w3 0 d 0 w3 d w3 0 d  0 w3 d w3 neg 0 d 0 w3 d w3 neg 0 d 0 w3 neg d w3 neg 0 d cl s } def
/m29 {mp gsave x w2 sub y w2 add w3 sub m currentpoint t 4 {side} repeat cl fill gr} def
/m30 {mp gsave x w2 sub y w2 add w3 sub m currentpoint t 4 {side} repeat cl s gr} def
/m31 {mp x y w2 sub m 0 w d x w2 sub y m w 0 d x w2 sub y w2 add m w w neg d x w2 sub y w2 sub m w w d s} def
/m32 {mp x y w2 sub m w2 w d w neg 0 d cl s} def
/m33 {mp x y w2 add m w3 neg w2 neg d w3 w2 neg d w3 w2 d cl f} def
/m34 {mp x w2 sub y w2 sub w3 add m w3 0 d  0 w3 neg d w3 0 d 0 w3 d w3 0 d  0 w3 d w3 neg 0 d 0 w3 d w3 neg 0 d 0 w3 neg d w3 neg 0 d cl f } def
/m2 {mp x y w2 sub m 0 w d x w2 sub y m w 0 d s} def
/m5 {mp x w2 sub y w2 sub m w w d x w2 sub y w2 add m w w neg d s} def
/reEncode {exch findfont dup length dict begin {1 index /FID eq  {pop pop} {def} ifelse } forall /Encoding exch def currentdict end dup /FontName get exch definefont pop } def [/Times-Bold /Times-Italic /Times-BoldItalic /Helvetica /Helvetica-Oblique
 /Helvetica-Bold /Helvetica-BoldOblique /Courier /Courier-Oblique /Courier-Bold /Courier-BoldOblique /Times-Roman /AvantGarde-Book /AvantGarde-BookOblique /AvantGarde-Demi /AvantGarde-DemiOblique /Bookman-Demi /Bookman-DemiItalic /Bookman-Light
 /Bookman-LightItalic /Helvetica-Narrow /Helvetica-Narrow-Bold /Helvetica-Narrow-BoldOblique /Helvetica-Narrow-Oblique /NewCenturySchlbk-Roman /NewCenturySchlbk-Bold /NewCenturySchlbk-BoldItalic /NewCenturySchlbk-Italic /Palatino-Bold
 /Palatino-BoldItalic /Palatino-Italic /Palatino-Roman ] {ISOLatin1Encoding reEncode } forall
%%EndProlog
%%BeginSetup
%%EndSetup
newpath  gsave  .25 .25 scale  gsave  0 0 t black[  ] 0 sd 3 lw 1 1 1 c 2268 2176 0 0 bf black 1 1 1 c 1791 1720 363 348 bf black 1791 1720 363 348 bl 6 lw 1 1 1 c black 363 348 m 1791 X s 3 lw 363 348 m 1791 X s
 gsave  2268 2176 0 0 C 1837.76 87.5126 t 0 r /Helvetica findfont 102.732 sf 0 0 m (  [GeV]) show NC gr 
 gsave  2268 2176 0 0 C 1704.59 57.0734 t 0 r /Helvetica findfont 68.4881 sf 0 0 m (T,jet) show NC gr 
 gsave  2268 2176 0 0 C 1639.91 87.5126 t 0 r /Helvetica findfont 102.732 sf 0 0 m (E) show NC gr  592 400 m -52 Y s 644 374 m -26 Y s 696 374 m -26 Y s 748 374 m -26 Y s 800 374 m -26 Y s 852 400 m -52 Y s 904 374 m -26 Y s 957 374 m -26 Y s 1009
 374 m -26 Y s 1061 374 m -26 Y s 1113 400 m -52 Y s 1165 374 m -26 Y s 1217 374 m -26 Y s 1269 374 m -26 Y s 1321 374 m -26 Y s 1373 400 m -52 Y s 1425 374 m -26 Y s 1477 374 m -26 Y s 1529 374 m -26 Y s 1581 374 m -26 Y s 1634 400 m -52 Y s 1686
 374 m -26 Y s 1738 374 m -26 Y s 1790 374 m -26 Y s 1842 374 m -26 Y s 1894 400 m -52 Y s 1946 374 m -26 Y s 1998 374 m -26 Y s 2050 374 m -26 Y s 2102 374 m -26 Y s 2154 400 m -52 Y s 592 400 m -52 Y s 540 374 m -26 Y s 488 374 m -26 Y s 436 374 m
 -26 Y s 384 374 m -26 Y s
 gsave  2268 2176 0 0 C 506.051 251.123 t 0 r /Helvetica findfont 102.732 sf 0 0 m (500) show NC gr 
 gsave  2268 2176 0 0 C 738.149 251.123 t 0 r /Helvetica findfont 102.732 sf 0 0 m (1000) show NC gr 
 gsave  2268 2176 0 0 C 996.882 251.123 t 0 r /Helvetica findfont 102.732 sf 0 0 m (1500) show NC gr 
 gsave  2268 2176 0 0 C 1255.61 251.123 t 0 r /Helvetica findfont 102.732 sf 0 0 m (2000) show NC gr 
 gsave  2268 2176 0 0 C 1518.15 251.123 t 0 r /Helvetica findfont 102.732 sf 0 0 m (2500) show NC gr 
 gsave  2268 2176 0 0 C 1776.89 251.123 t 0 r /Helvetica findfont 102.732 sf 0 0 m (3000) show NC gr 
 gsave  2268 2176 0 0 C 2039.42 251.123 t 0 r /Helvetica findfont 102.732 sf 0 0 m (3500) show NC gr  363 2068 m 1791 X s 592 2016 m 52 Y s 644 2042 m 26 Y s 696 2042 m 26 Y s 748 2042 m 26 Y s 800 2042 m 26 Y s 852 2016 m 52 Y s 904 2042 m 26 Y s
 957 2042 m 26 Y s 1009 2042 m 26 Y s 1061 2042 m 26 Y s 1113 2016 m 52 Y s 1165 2042 m 26 Y s 1217 2042 m 26 Y s 1269 2042 m 26 Y s 1321 2042 m 26 Y s 1373 2016 m 52 Y s 1425 2042 m 26 Y s 1477 2042 m 26 Y s 1529 2042 m 26 Y s 1581 2042 m 26 Y s
 1634 2016 m 52 Y s 1686 2042 m 26 Y s 1738 2042 m 26 Y s 1790 2042 m 26 Y s 1842 2042 m 26 Y s 1894 2016 m 52 Y s 1946 2042 m 26 Y s 1998 2042 m 26 Y s 2050 2042 m 26 Y s 2102 2042 m 26 Y s 2154 2016 m 52 Y s 592 2016 m 52 Y s 540 2042 m 26 Y s 488
 2042 m 26 Y s 436 2042 m 26 Y s 384 2042 m 26 Y s 363 348 m 1720 Y s
 gsave  2268 2176 0 0 C 121.757 1670.35 t 90 r /Helvetica findfont 102.732 sf 0 0 m ( [fb/GeV]) show NC gr 
 gsave  2268 2176 0 0 C 159.806 1537.18 t 90 r /Helvetica findfont 68.4881 sf 0 0 m (T,jet) show NC gr 
 gsave  2268 2176 0 0 C 121.757 1381.18 t 90 r /Helvetica findfont 102.732 sf 0 0 m (/dE) show NC gr 
 gsave  2268 2176 0 0 C 159.806 1305.08 t 90 r /Helvetica findfont 68.4881 sf 0 0 m (jet) show NC gr 
 gsave  2268 2176 0 0 C 121.757 1244.2 t 90 r /Symbol findfont 102.732 sf 0 0 m (s) show NC gr 
 gsave  2268 2176 0 0 C 121.757 1190.93 t 90 r /Helvetica findfont 102.732 sf 0 0 m (d) show NC gr  417 348 m -54 X s
 gsave  2268 2176 0 0 C 277.757 350.05 t 0 r /Helvetica findfont 68.4881 sf 0 0 m (\2553) show NC gr 
 gsave  2268 2176 0 0 C 167.415 300.587 t 0 r /Helvetica findfont 102.732 sf 0 0 m (10) show NC gr  390 398 m -27 X s 390 428 m -27 X s 390 449 m -27 X s 390 465 m -27 X s 390 478 m -27 X s 390 489 m -27 X s 390 499 m -27 X s 390 507 m -27 X s 417
 515 m -54 X s
 gsave  2268 2176 0 0 C 277.757 513.661 t 0 r /Helvetica findfont 68.4881 sf 0 0 m (\2552) show NC gr 
 gsave  2268 2176 0 0 C 167.415 468.002 t 0 r /Helvetica findfont 102.732 sf 0 0 m (10) show NC gr  390 565 m -27 X s 390 595 m -27 X s 390 616 m -27 X s 390 632 m -27 X s 390 645 m -27 X s 390 656 m -27 X s 390 666 m -27 X s 390 674 m -27 X s 417
 682 m -54 X s
 gsave  2268 2176 0 0 C 289.172 681.076 t 0 r /Helvetica findfont 68.4881 sf 0 0 m (\2551) show NC gr 
 gsave  2268 2176 0 0 C 178.83 635.417 t 0 r /Helvetica findfont 102.732 sf 0 0 m (10) show NC gr  390 732 m -27 X s 390 762 m -27 X s 390 783 m -27 X s 390 799 m -27 X s 390 812 m -27 X s 390 823 m -27 X s 390 833 m -27 X s 390 841 m -27 X s 417 849
 m -54 X s
 gsave  2268 2176 0 0 C 342.425 806.342 t 0 r  -56 0 t /Helvetica findfont 102.732 sf 0 0 m (1) show NC gr  390 899 m -27 X s 390 929 m -27 X s 390 949 m -27 X s 390 966 m -27 X s 390 979 m -27 X s 390 990 m -27 X s 390 1000 m -27 X s 390 1008 m -27
 X s 417 1016 m -54 X s
 gsave  2268 2176 0 0 C 342.425 973.253 t 0 r  -112 0 t /Helvetica findfont 102.732 sf 0 0 m (10) show NC gr  390 1066 m -27 X s 390 1096 m -27 X s 390 1116 m -27 X s 390 1133 m -27 X s 390 1146 m -27 X s 390 1157 m -27 X s 390 1167 m -27 X s 390
 1175 m -27 X s 417 1183 m -54 X s
 gsave  2268 2176 0 0 C 300.587 1179.52 t 0 r /Helvetica findfont 68.4881 sf 0 0 m (2) show NC gr 
 gsave  2268 2176 0 0 C 190.245 1133.86 t 0 r /Helvetica findfont 102.732 sf 0 0 m (10) show NC gr  390 1233 m -27 X s 390 1262 m -27 X s 390 1283 m -27 X s 390 1299 m -27 X s 390 1313 m -27 X s 390 1324 m -27 X s 390 1334 m -27 X s 390 1342 m -27 X
 s 417 1350 m -54 X s
 gsave  2268 2176 0 0 C 300.587 1350.74 t 0 r /Helvetica findfont 68.4881 sf 0 0 m (3) show NC gr 
 gsave  2268 2176 0 0 C 190.245 1301.27 t 0 r /Helvetica findfont 102.732 sf 0 0 m (10) show NC gr  390 1400 m -27 X s 390 1429 m -27 X s 390 1450 m -27 X s 390 1466 m -27 X s 390 1480 m -27 X s 390 1491 m -27 X s 390 1500 m -27 X s 390 1509 m -27 X
 s 417 1517 m -54 X s
 gsave  2268 2176 0 0 C 300.587 1514.35 t 0 r /Helvetica findfont 68.4881 sf 0 0 m (4) show NC gr 
 gsave  2268 2176 0 0 C 190.245 1468.69 t 0 r /Helvetica findfont 102.732 sf 0 0 m (10) show NC gr  390 1567 m -27 X s 390 1596 m -27 X s 390 1617 m -27 X s 390 1633 m -27 X s 390 1646 m -27 X s 390 1658 m -27 X s 390 1667 m -27 X s 390 1676 m -27 X
 s 417 1684 m -54 X s
 gsave  2268 2176 0 0 C 300.587 1685.57 t 0 r /Helvetica findfont 68.4881 sf 0 0 m (5) show NC gr 
 gsave  2268 2176 0 0 C 190.245 1636.1 t 0 r /Helvetica findfont 102.732 sf 0 0 m (10) show NC gr  390 1734 m -27 X s 390 1763 m -27 X s 390 1784 m -27 X s 390 1800 m -27 X s 390 1813 m -27 X s 390 1825 m -27 X s 390 1834 m -27 X s 390 1843 m -27 X s
 417 1850 m -54 X s
 gsave  2268 2176 0 0 C 300.587 1852.98 t 0 r /Helvetica findfont 68.4881 sf 0 0 m (6) show NC gr 
 gsave  2268 2176 0 0 C 190.245 1803.52 t 0 r /Helvetica findfont 102.732 sf 0 0 m (10) show NC gr  390 1901 m -27 X s 390 1930 m -27 X s 390 1951 m -27 X s 390 1967 m -27 X s 390 1980 m -27 X s 390 1991 m -27 X s 390 2001 m -27 X s 390 2010 m -27 X
 s 417 2017 m -54 X s
 gsave  2268 2176 0 0 C 300.587 2016.59 t 0 r /Helvetica findfont 68.4881 sf 0 0 m (7) show NC gr 
 gsave  2268 2176 0 0 C 190.245 1970.93 t 0 r /Helvetica findfont 102.732 sf 0 0 m (10) show NC gr  390 2068 m -27 X s 2154 348 m 1720 Y s 2101 348 m 53 X s 2127 398 m 27 X s 2127 428 m 27 X s 2127 449 m 27 X s 2127 465 m 27 X s 2127 478 m 27 X s
 2127 489 m 27 X s 2127 499 m 27 X s 2127 507 m 27 X s 2101 515 m 53 X s 2127 565 m 27 X s 2127 595 m 27 X s 2127 616 m 27 X s 2127 632 m 27 X s 2127 645 m 27 X s 2127 656 m 27 X s 2127 666 m 27 X s 2127 674 m 27 X s 2101 682 m 53 X s 2127 732 m 27 X
 s 2127 762 m 27 X s 2127 783 m 27 X s 2127 799 m 27 X s 2127 812 m 27 X s 2127 823 m 27 X s 2127 833 m 27 X s 2127 841 m 27 X s 2101 849 m 53 X s 2127 899 m 27 X s 2127 929 m 27 X s 2127 949 m 27 X s 2127 966 m 27 X s 2127 979 m 27 X s 2127 990 m 27
 X s 2127 1000 m 27 X s 2127 1008 m 27 X s 2101 1016 m 53 X s 2127 1066 m 27 X s 2127 1096 m 27 X s 2127 1116 m 27 X s 2127 1133 m 27 X s 2127 1146 m 27 X s 2127 1157 m 27 X s 2127 1167 m 27 X s 2127 1175 m 27 X s 2101 1183 m 53 X s 2127 1233 m 27 X
 s 2127 1262 m 27 X s 2127 1283 m 27 X s 2127 1299 m 27 X s 2127 1313 m 27 X s 2127 1324 m 27 X s 2127 1334 m 27 X s 2127 1342 m 27 X s 2101 1350 m 53 X s 2127 1400 m 27 X s 2127 1429 m 27 X s 2127 1450 m 27 X s 2127 1466 m 27 X s 2127 1480 m 27 X s
 2127 1491 m 27 X s 2127 1500 m 27 X s 2127 1509 m 27 X s 2101 1517 m 53 X s 2127 1567 m 27 X s 2127 1596 m 27 X s 2127 1617 m 27 X s 2127 1633 m 27 X s 2127 1646 m 27 X s 2127 1658 m 27 X s 2127 1667 m 27 X s 2127 1676 m 27 X s 2101 1684 m 53 X s
 2127 1734 m 27 X s 2127 1763 m 27 X s 2127 1784 m 27 X s 2127 1800 m 27 X s 2127 1813 m 27 X s 2127 1825 m 27 X s 2127 1834 m 27 X s 2127 1843 m 27 X s 2101 1850 m 53 X s 2127 1901 m 27 X s 2127 1930 m 27 X s 2127 1951 m 27 X s 2127 1967 m 27 X s
 2127 1980 m 27 X s 2127 1991 m 27 X s 2127 2001 m 27 X s 2127 2010 m 27 X s 2101 2017 m 53 X s 2127 2068 m 27 X s 1 1 0 c 52 12 384 1981 bf black 1 1 0 c 52 10 436 1761 bf black 1 1 0 c 52 12 488 1624 bf black 1 1 0 c 52 12 540 1516 bf black 1 1 0 c
 52 13 592 1427 bf black 1 1 0 c 52 14 644 1357 bf black 1 1 0 c 52 15 696 1293 bf black 1 1 0 c 52 17 748 1234 bf black 1 1 0 c 52 18 800 1183 bf black 1 1 0 c 52 20 852 1136 bf black 1 1 0 c 53 19 904 1089 bf black 1 1 0 c 52 21 957 1047 bf black 1
 1 0 c 52 22 1009 1007 bf black 1 1 0 c 52 22 1061 970 bf black 1 1 0 c 52 23 1113 933 bf black 1 1 0 c 52 25 1165 904 bf black 1 1 0 c 52 25 1217 864 bf black 1 1 0 c 52 26 1269 838 bf black 1 1 0 c 52 27 1321 804 bf black 1 1 0 c 52 26 1373 768 bf
 black 1 1 0 c 52 28 1425 740 bf black 1 1 0 c 52 30 1477 721 bf black 1 1 0 c 52 30 1529 672 bf black 1 1 0 c 53 29 1581 654 bf black 1 1 0 c 52 31 1634 620 bf black 1 1 0 c 52 31 1686 597 bf black 1 1 0 c 52 33 1738 564 bf black 1 1 0 c 52 35 1790
 542 bf black 1 1 0 c 52 33 1842 505 bf black 1 1 0 c 52 35 1894 477 bf black 1 1 0 c 52 36 1946 451 bf black 1 1 0 c 52 37 1998 424 bf black 1 1 0 c 52 39 2050 394 bf black 1 1 0 c 52 39 2102 355 bf black 1 1 0 c black 1 1 0 c 52 10 384 1982 bf
 black 1 1 0 c 52 9 436 1762 bf black 1 1 0 c 52 11 488 1624 bf black 1 1 0 c 52 10 540 1517 bf black 1 1 0 c 52 9 592 1429 bf black 1 1 0 c 52 11 644 1358 bf black 1 1 0 c 52 12 696 1294 bf black 1 1 0 c 52 12 748 1236 bf black 1 1 0 c 52 12 800
 1185 bf black 1 1 0 c 52 12 852 1139 bf black 1 1 0 c 53 11 904 1091 bf black 1 1 0 c 52 11 957 1050 bf black 1 1 0 c 52 11 1009 1011 bf black 1 1 0 c 52 12 1061 973 bf black 1 1 0 c 52 11 1113 937 bf black 1 1 0 c 52 15 1165 907 bf black 1 1 0 c 52
 10 1217 869 bf black 1 1 0 c 52 14 1269 842 bf black 1 1 0 c 52 13 1321 809 bf black 1 1 0 c 52 10 1373 773 bf black 1 1 0 c 52 11 1425 745 bf black 1 1 0 c 52 18 1477 725 bf black 1 1 0 c 52 7 1529 679 bf black 1 1 0 c 53 13 1581 659 bf black 1 1 0
 c 52 11 1634 625 bf black 1 1 0 c 52 14 1686 602 bf black 1 1 0 c 52 13 1738 570 bf black 1 1 0 c 52 16 1790 548 bf black 1 1 0 c 52 12 1842 511 bf black 1 1 0 c 52 11 1894 484 bf black 1 1 0 c 52 16 1946 457 bf black 1 1 0 c 52 16 1998 430 bf black
 1 1 0 c 52 17 2050 401 bf black 1 1 0 c 52 12 2102 363 bf black 1 1 0 c black 9 lw 410 1988 m -26 X s 410 1988 m 26 X s 462 1767 m -26 X s 462 1767 m 26 X s 514 1631 m -26 X s 514 1631 m 26 X s 566 1523 m -26 X s 566 1523 m 26 X s 618 1435 m -26 X s
 618 1435 m 26 X s 670 1365 m -26 X s 670 1365 m 26 X s 722 1301 m -26 X s 722 1301 m 26 X s 774 1243 m -26 X s 774 1243 m 26 X s 826 1192 m -26 X s 826 1192 m 26 X s 878 1146 m -26 X s 878 1146 m 26 X s 930 1098 m -26 X s 930 1098 m 27 X s 983 1057
 m -26 X s 983 1057 m 26 X s 1035 1018 m -26 X s 1035 1018 m 26 X s 1087 981 m -26 X s 1087 981 m 26 X s 1139 944 m -26 X s 1139 944 m 26 X s 1191 916 m -26 X s 1191 916 m 26 X s 1243 876 m -26 X s 1243 876 m 26 X s 1295 850 m -26 X s 1295 850 m 26 X
 s 1347 817 m -26 X s 1347 817 m 26 X s 1399 780 m -26 X s 1399 780 m 26 X s 1451 752 m -26 X s 1451 752 m 26 X s 1503 735 m -26 X s 1503 735 m 26 X s 1555 685 m -26 X s 1555 685 m 26 X s 1608 667 m -27 X s 1608 667 m 26 X s 1660 633 m -26 X s 1660
 633 m 26 X s 1712 611 m -26 X s 1712 611 m 26 X s 1764 578 m -26 X s 1764 578 m 26 X s 1816 557 m -26 X s 1816 557 m 26 X s 1868 519 m -26 X s 1868 519 m 26 X s 1920 492 m -26 X s 1920 492 m 26 X s 1972 467 m -26 X s 1972 467 m 26 X s 2024 440 m -26
 X s 2024 440 m 26 X s 2076 411 m -26 X s 2076 411 m 26 X s 2128 371 m -26 X s 2128 371 m 26 X s 6 lw 1399 791 m 2 Y s 1399 793 m cl s 1399 761 m -7 Y s 1399 754 m cl s 1451 768 m 4 Y s 1451 772 m cl s 1451 737 m -11 Y s 1451 726 m cl s 1503 748 m 6
 Y s 1503 754 m cl s 1503 717 m -16 Y s 1503 701 m cl s 1555 721 m 11 Y s 1555 732 m cl s 1555 691 m -25 Y s 1555 666 m cl s 1608 719 m 11 Y s 1608 730 m cl s 1608 688 m -25 Y s 1608 663 m cl s 1660 688 m 16 Y s 1660 704 m cl s 1660 658 m -40 Y s
 1660 618 m cl s 1712 675 m 18 Y s 1712 693 m cl s 1712 645 m -48 Y s 1712 597 m cl s 1764 672 m 18 Y s 1764 690 m cl s 1764 641 m -50 Y s 1764 591 m cl s 1816 654 m 22 Y s 1816 676 m cl s 1816 623 m -66 Y s 1816 557 m cl s 1868 666 m 19 Y s 1868 685
 m cl s 1868 635 m -55 Y s 1868 580 m cl s 1920 660 m 21 Y s 1920 681 m cl s 1920 630 m -60 Y s 1920 570 m cl s 1972 669 m 19 Y s 1972 688 m cl s 1972 638 m -52 Y s 1972 586 m cl s 2024 657 m 22 Y s 2024 679 m cl s 2024 627 m -63 Y s 2024 564 m cl s
 2076 684 m 16 Y s 2076 700 m cl s 2076 654 m -43 Y s 2076 611 m cl s 2128 676 m 18 Y s 2128 694 m cl s 2128 646 m -48 Y s 2128 598 m cl s 1 1 1 c black 3 lw /w 37 def /w2 {w 2 div} def /w3 {w 3 div} def 410 1981 462 1759 514 1643 566 1524 618 1442
 670 1359 722 1302 774 1243 826 1184 878 1131 930 1089 983 1060 1035 1023 1087 983 1139 938 1191 903 1243 884 1295 858 1347 825 1399 776 1451 753 1503 732 1555 706 1608 704 1660 673 1712 660 1764 656 1816 638 1868 650 1920 645 1972 654 2024 642 2076
 669 2128 661 34 { m20} R 6 lw
 gsave  2268 2176 0 0 C 780.003 1852.98 t 0 r /Helvetica findfont 102.732 sf 0 0 m (= 14 TeV) show NC gr 
 gsave  2268 2176 0 0 C 730.54 1852.98 t 0 r /Helvetica findfont 102.732 sf 0 0 m (s) show NC gr  696 1910 m 12 -61 d s 0 lw 708 1849 m 11 91 d s 719 1940 m 61 X s
 gsave  2268 2176 0 0 C 1442.05 1852.98 t 0 r /Helvetica findfont 102.732 sf 0 0 m (|<0.5) show NC gr 
 gsave  2268 2176 0 0 C 1365.96 1799.71 t 0 r /Helvetica findfont 68.4881 sf 0 0 m (jet) show NC gr 
 gsave  2268 2176 0 0 C 1308.88 1852.98 t 0 r /Symbol findfont 102.732 sf 0 0 m (h) show NC gr 
 gsave  2268 2176 0 0 C 1289.86 1852.98 t 0 r /Helvetica findfont 102.732 sf 0 0 m (|) show NC gr  3 lw /w 40 def /w2 {w 2 div} def /w3 {w 3 div} def 1193 1632 m20 0 lw
 gsave  2268 2176 0 0 C 1244.2 1594.25 t 0 r /Helvetica findfont 102.732 sf 0 0 m (Data 2009) show NC gr 
 gsave  2268 2176 0 0 C 1244.2 1423.03 t 0 r /Helvetica findfont 102.732 sf 0 0 m (NLO QCD) show NC gr  3 lw 1 1 0 c 113 65 1093 1426 bf black 12 lw 1093 1458 m 113 X s
 gsave  2268 2176 0 0 C 452.782 437.563 t 0 r /Helvetica-BoldOblique findfont 102.732 sf 0 0 m (ATLAS) show NC gr 
 gsave  2268 2176 0 0 C 821.857 437.563 t 0 r /Helvetica findfont 102.732 sf 0 0 m (Preliminary) show NC gr 
 gr  gr showpage
end
%%EOF
